{
  "$schema": "http://json-schema.org/draft-04/schema#",
  "type": "object",
  "properties": {
    "customerID": {
      "type": "integer"
    },
    "parentID": {
      "type": "integer"
    },
    "city": {
      "type": "string"
    },
    "countryOrRegion": {
      "type": "string"
    },
    "customerType": {
      "type": "string"
    },
    "lastModifiedDate": {
      "type": "string"
    },
    "name": {
      "type": "string"
    },
    "phoneNumber": {
      "type": "string"
    },
    "postalCode": {
      "type": "string"
    },
    "stateOrRegionCity": {
      "type": "string"
    },
    "streetAddress": {
      "type": "string"
    }
  },
  "required": [
    "customerID"
  ]
}